module plm

go 1.20

require (
	dagger.io/dagger v0.6.0
	github.com/stretchr/testify v1.8.2
)

require (
	github.com/Khan/genqlient v0.5.0 // indirect
	github.com/adrg/xdg v0.4.0 // indirect
	github.com/davecgh/go-spew v1.1.1 // indirect
	github.com/iancoleman/strcase v0.2.0 // indirect
	github.com/pmezard/go-difflib v1.0.0 // indirect
	github.com/vektah/gqlparser/v2 v2.5.1 // indirect
	golang.org/x/mod v0.10.0 // indirect
	golang.org/x/sync v0.1.0 // indirect
	golang.org/x/sys v0.7.0 // indirect
	golang.org/x/tools v0.8.0 // indirect
	gopkg.in/yaml.v3 v3.0.1 // indirect
)
