module repo

go 1.20

require (
	github.com/pulumi/pulumi-command/sdk v0.7.1
	github.com/pulumi/pulumi-gitlab/sdk/v4 v4.9.0
	github.com/pulumi/pulumi/sdk/v3 v3.62.0
	github.com/stretchr/testify v1.8.1
)

require (
	github.com/Microsoft/go-winio v0.6.0 // indirect
	github.com/ProtonMail/go-crypto v0.0.0-20230331115716-d34776aa93ec // indirect
	github.com/acomagu/bufpipe v1.0.4 // indirect
	github.com/aead/chacha20 v0.0.0-20180709150244-8b13a72661da // indirect
	github.com/blang/semver v3.5.1+incompatible // indirect
	github.com/cheggaaa/pb v1.0.29 // indirect
	github.com/cloudflare/circl v1.3.2 // indirect
	github.com/davecgh/go-spew v1.1.1 // indirect
	github.com/djherbis/times v1.5.0 // indirect
	github.com/emirpasic/gods v1.18.1 // indirect
	github.com/fsnotify/fsnotify v1.6.0 // indirect
	github.com/go-git/gcfg v1.5.0 // indirect
	github.com/go-git/go-billy/v5 v5.4.1 // indirect
	github.com/go-git/go-git/v5 v5.6.1 // indirect
	github.com/gofrs/uuid v4.4.0+incompatible // indirect
	github.com/gogo/protobuf v1.3.2 // indirect
	github.com/golang/glog v1.1.1 // indirect
	github.com/golang/protobuf v1.5.3 // indirect
	github.com/grpc-ecosystem/grpc-opentracing v0.0.0-20180507213350-8e809c8a8645 // indirect
	github.com/hashicorp/errwrap v1.1.0 // indirect
	github.com/hashicorp/go-multierror v1.1.1 // indirect
	github.com/imdario/mergo v0.3.15 // indirect
	github.com/inconshreveable/mousetrap v1.1.0 // indirect
	github.com/jbenet/go-context v0.0.0-20150711004518-d14ea06fba99 // indirect
	github.com/kevinburke/ssh_config v1.2.0 // indirect
	github.com/mattn/go-runewidth v0.0.14 // indirect
	github.com/mitchellh/go-ps v1.0.0 // indirect
	github.com/nxadm/tail v1.4.8 // indirect
	github.com/opentracing/basictracer-go v1.1.0 // indirect
	github.com/opentracing/opentracing-go v1.2.0 // indirect
	github.com/pjbgf/sha1cd v0.3.0 // indirect
	github.com/pkg/errors v0.9.1 // indirect
	github.com/pkg/term v1.1.0 // indirect
	github.com/pmezard/go-difflib v1.0.0 // indirect
	github.com/rivo/uniseg v0.4.4 // indirect
	github.com/rogpeppe/go-internal v1.10.0 // indirect
	github.com/sabhiram/go-gitignore v0.0.0-20210923224102-525f6e181f06 // indirect
	github.com/santhosh-tekuri/jsonschema/v5 v5.3.0 // indirect
	github.com/sergi/go-diff v1.3.1 // indirect
	github.com/skeema/knownhosts v1.1.0 // indirect
	github.com/spf13/cobra v1.7.0 // indirect
	github.com/spf13/pflag v1.0.5 // indirect
	github.com/texttheater/golang-levenshtein v1.0.1 // indirect
	github.com/tweekmonster/luser v0.0.0-20161003172636-3fa38070dbd7 // indirect
	github.com/uber/jaeger-client-go v2.30.0+incompatible // indirect
	github.com/uber/jaeger-lib v2.4.1+incompatible // indirect
	github.com/xanzy/ssh-agent v0.3.3 // indirect
	go.uber.org/atomic v1.10.0 // indirect
	golang.org/x/crypto v0.7.0 // indirect
	golang.org/x/mod v0.10.0 // indirect
	golang.org/x/net v0.9.0 // indirect
	golang.org/x/sys v0.7.0 // indirect
	golang.org/x/term v0.7.0 // indirect
	golang.org/x/text v0.9.0 // indirect
	golang.org/x/tools v0.8.0 // indirect
	google.golang.org/genproto v0.0.0-20230403163135-c38d8f061ccd // indirect
	google.golang.org/grpc v1.54.0 // indirect
	google.golang.org/protobuf v1.30.0 // indirect
	gopkg.in/tomb.v1 v1.0.0-20141024135613-dd632973f1e7 // indirect
	gopkg.in/warnings.v0 v0.1.2 // indirect
	gopkg.in/yaml.v3 v3.0.1 // indirect
	lukechampine.com/frand v1.4.2 // indirect
	sourcegraph.com/sourcegraph/appdash v0.0.0-20211028080628-e2786a622600 // indirect
)
